7 Data Frames – Data Literacy
…
 [1] "id"                    "age"                   "political_orientation"
 [4] "political_interest"    "np_subscription"       "news consumption"     
 [7] "experiment_group"      "trust_t1"              "trust_t2"             
[10] "trust_t1_item1"        "trust_t1_item2"        "trust_t1_item3"       
[13] "trust_t1_item4"        "trust_t1_item5"        "trust_t2_item1"       
[16] "trust_t2_item2"        "trust_t2_item3"        "trust_t2_item4"       
[19] "trust_t2_item5"       

Selecting specific columns

The simplest way of using select is to explicitly specify the columns you want to keep. The first argument is the tibble (data frame) you want to select from, and the following arguments are the columns you want to keep. The following code returns a new tibble with only the columns id, age, and np_subscription.

select(d, id, age, np_subscription)

# A tibble: 600 × 3
      id   age np_subscription
   <dbl> <dbl> <chr>          
 1     1    21 no             
 2     2    42 yes            
 3     3    18 no             
 4     4    42 no             
 5     5    32 no             
 6     6    33 yes            
 7     7    21 no             
 8     8    46 yes            
 9     9    50 yes            
10    10    63 yes            
# ℹ 590 more rows
…
rename(d, group = experiment_group, 
          trust_before = trust_t1, 
          trust_after = trust_t2)

In this case, we do rename the columns, but without dropping all the other columns.

7.4 Filter and arrange

Subsetting rows with filter()

The filter function can be used to select a subset of rows. The first argument of the filter function is the tibble you want to filter. The second argument is the condition that should be met for a row to be included in the result. Let’s say we want to select only the rows where the experiment_group column is equal to control. We can then use the == (is equal to) operator.

filter(d, experiment_group == 'control')

# A tibble: 200 × 19
      id   age political_orientation political_interest np_subscription
   <dbl> <dbl> <chr>                              <dbl> <chr>          
 1     1    21 right                               5.24 no             
 2     2    42 center                              2.28 yes            
 3     5    32 left                                4.37 no             
 4     6    33 left                                4.88 yes            
 5     8    46 left                                3.28 yes            
 6    10    63 right                               3.29 yes            
 7    17    32 left                                3.83 yes            
 8    18    64 left                                4.13 yes            
 9    21    61 left                                2.99 yes            
10    22    63 right                               5.03 yes            
# ℹ 190 more rows
# ℹ 14 more variables: `news consumption` <dbl>, experiment_group <chr>,
#   trust_t1 <dbl>, trust_t2 <dbl>, trust_t1_item1 <dbl>, trust_t1_item2 <dbl>,
#   trust_t1_item3 <dbl>, trust_t1_item4 <dbl>, trust_t1_item5 <dbl>,
#   trust_t2_item1 <dbl>, trust_t2_item2 <dbl>, trust_t2_item3 <dbl>,
#   trust_t2_item4 <dbl>, trust_t2_item5 <dbl>
…
filter(d, !is.na(age))    ## rows where age IS NOT missing

In addition, there is a special function in the tidyverse for removing rows if ANY column in the data is missing. This is the drop_na function.

drop_na(d)

This returns 595 rows (out of 600) because 5 rows had missing values in the age column.

Sorting rows with arrange()

The arrange function can be used to sort the rows of a tibble. For example, if we want to sort the data by the age column:

arrange(d, age)

# A tibble: 600 × 19
      id   age political_orientation political_interest np_subscription
   <dbl> <dbl> <chr>                              <dbl> <chr>          
 1   277    17 left                                3.62 yes            
 2     3    18 right                               5.87 no             
 3    11    18 right                               4.32 no             
 4   373    18 left                                2.12 yes            
 5    57    19 center                              2.69 no             
 6    97    19 left                                3.31 yes            
 7   196    19 center                              4.40 no             
 8   224    19 right                               4.18 no             
 9   434    19 center                              5.20 no             
10   461    19 center                              4.00 no             
# ℹ 590 more rows
# ℹ 14 more variables: `news consumption` <dbl>, experiment_group <chr>,
#   trust_t1 <dbl>, trust_t2 <dbl>, trust_t1_item1 <dbl>, trust_t1_item2 <dbl>,
#   trust_t1_item3 <dbl>, trust_t1_item4 <dbl>, trust_t1_item5 <dbl>,
#   trust_t2_item1 <dbl>, trust_t2_item2 <dbl>, trust_t2_item3 <dbl>,
#   trust_t2_item4 <dbl>, trust_t2_item5 <dbl>
…
The mutate function allows you to create or modify columns in a data frame. You just specify which columns you want to create or modify, and then provide an expression for how to compute the new values. In this expression you can refer to other columns in the table, and use any R functions you like, which makes mutate a very powerful tool.

Creating new variables

To create a new variable you use the following syntax:

mutate(d, new_variable = expression)

The expression can be anything that returns a valid column. For example, in the practice data we have the columns trust_t1 and trust_t2, which represent trust in journalists before and after the experiment. We can create a new variable trust_change that represents the change in trust from before to after the experiment.

d <- mutate(d, trust_change = trust_t2 - trust_t1)

select(d, trust_t1, trust_t2, trust_change)

# A tibble: 600 × 3
   trust_t1 trust_t2 trust_change
      <dbl>    <dbl>        <dbl>
 1     2.5      2           -0.5 
 2     4        4            0   
 3     3        1           -2   
 4     3.75     1.75        -2   
 5     6        6.25         0.25
 6     5.5      7            1.5 
 7     4        3.75        -0.25
 8     5.5      5.25        -0.25
 9     6.75     6.75         0   
10     4.75     3.75        -1   
# ℹ 590 more rows
…
