8 Data cleaning – Data Literacy
…
In this section we’ll show you some techniques for inspecting your data, and how you can tidy it up using the data management techniques we’ve learned so far.

First, get to know your data

When you start working with a new dataset, the first thing you should do is get to know it. What columns are in there? What is the data type? How many rows are there?

If you’re tibble doesn’t have a huge number of columns, you can just print it to the console to get a quick overview.

d

Another nice way to look at the data is to use the View function in RStudio (or clicking on the name of the tibble in the Environment tab in the top-right corner of RStudio). This will open a new tab in RStudio where you can see the data in a nice table. Here you can also filter and sort on columns, and search for specific values. Do note that if there are many columns, RStudio might not show them all at once, but you can click to see more.

View(d)

# A tibble: 600 × 19
      id   age political_orientation political_interest np_subscription
   <dbl> <dbl> <chr>                              <dbl> <chr>          
 1     1    21 right                               5.24 no             
 2     2    42 center                              2.28 yes            
 3     3    18 right                               5.87 no             
 4     4    42 center                              4.13 no             
 5     5    32 left                                4.37 no             
 6     6    33 left                                4.88 yes            
 7     7    21 left                                2.50 no             
 8     8    46 left                                3.28 yes            
 9     9    50 left                                4.82 yes            
10    10    63 right                               3.29 yes            
# ℹ 590 more rows
# ℹ 14 more variables: `news consumption` <dbl>, experiment_group <chr>,
#   trust_t1 <dbl>, trust_t2 <dbl>, trust_t1_item1 <dbl>, trust_t1_item2 <dbl>,
#   trust_t1_item3 <dbl>, trust_t1_item4 <dbl>, trust_t1_item5 <dbl>,
#   trust_t2_item1 <dbl>, trust_t2_item2 <dbl>, trust_t2_item3 <dbl>,
#   trust_t2_item4 <dbl>, trust_t2_item5 <dbl>
…
