16 t-test – Data Literacy
…
experiment_group. A categorical variable indicating the group to which the participant was assigned in an experiment. Each group viewed a different movie that was either neutral, positive, or negative about journalism.

trust_t1 & trust_t2. Two continuous variables measuring a participant’s trust in journalism before and after the experiment.

library(tidyverse)

d <- read_csv("https://data.dataliteracy.cc/simulated/practice_data.csv") |>
        select(news_consumption = `news consumption`,
               np_subscription, 
               experiment_group, 
               trust_t1, 
               trust_t2)
d

# A tibble: 600 × 5
   news_consumption np_subscription experiment_group trust_t1 trust_t2
              <dbl> <chr>           <chr>               <dbl>    <dbl>
 1                9 no              control              2.5      2   
 2               16 yes             control              4        4   
 3                9 no              negative             3        1   
 4               12 no              negative             3.75     1.75
 5               10 no              control              6        6.25
 6               19 yes             control              5.5      7   
 7               12 no              negative             4        3.75
 8               15 yes             control              5.5      5.25
 9               16 yes             positive             6.75     6.75
10               18 yes             control              4.75     3.75
# ℹ 590 more rows
…
