19 ANOVA – Data Literacy
…
np_subscription. Whether participants have a subscription to a national newspaper, with values yes or no.

trust_t1 and trust_t2. The trust in journalists, measured before (t1) and after (t2) watching a movie about journalism.

The experiment_group and np_subscription variables are our independent variable. To use these in the ANOVA, we’ll explicitly convert them to factors, to indicate that they are categorical variables.

library(tidyverse)
d <- read_csv("https://data.dataliteracy.cc/simulated/practice_data.csv") |>
        mutate(experiment_group = as.factor(experiment_group),
               np_subscription = as.factor(np_subscription)) |>
        select(id, experiment_group, np_subscription, trust_t1, trust_t2)
d

# A tibble: 600 × 5
      id experiment_group np_subscription trust_t1 trust_t2
   <dbl> <fct>            <fct>              <dbl>    <dbl>
 1     1 control          no                  2.5      2   
 2     2 control          yes                 4        4   
 3     3 negative         no                  3        1   
 4     4 negative         no                  3.75     1.75
 5     5 control          no                  6        6.25
 6     6 control          yes                 5.5      7   
 7     7 negative         no                  4        3.75
 8     8 control          yes                 5.5      5.25
 9     9 positive         yes                 6.75     6.75
10    10 control          yes                 4.75     3.75
# ℹ 590 more rows
…
